09_summarizing_data.knit
…
Filtering

library(dplyr)

filter(salmon, mass > 2)

# A tibble: 74 × 3
    mass river mass_class 
   <dbl> <chr> <fct>      
 1  3.09 a     (2.75,3.14]
 2  2.91 b     (2.75,3.14]
 3  3.06 c     (2.75,3.14]
 4  2.69 d     (2.35,2.75]
 5  2.88 e     (2.75,3.14]
 6  2.98 f     (2.75,3.14]
 7  2.16 b     (1.96,2.35]
 8  3.3  f     (3.14,3.53]
 9  3.25 e     (3.14,3.53]
10  2.18 f     (1.96,2.35]
# ℹ 64 more rows

Filtering

filter(salmon, river == "a")

# A tibble: 38 × 3
    mass river mass_class 
   <dbl> <chr> <fct>      
 1  3.09 a     (2.75,3.14]
 2  1.61 a     (1.57,1.96]
 3  1.91 a     (1.57,1.96]
 4  2.13 a     (1.96,2.35]
 5  1.53 a     [1.18,1.57]
 6  1.75 a     (1.57,1.96]
 7  1.76 a     (1.57,1.96]
 8  1.72 a     (1.57,1.96]
 9  2.29 a     (1.96,2.35]
10  1.74 a     (1.57,1.96]
# ℹ 28 more rows
…
What about mass class per river?

salmon_mass_count <- 
  
  # start with data
  salmon |>
  
  # make mass classes
  mutate(mass_class = cut_interval(mass, 5))

Mass Classes from cut_interval()

salmon_mass_count

# A tibble: 228 × 3
    mass river mass_class 
   <dbl> <chr> <fct>      
 1  3.09 a     (3.06,3.53]
 2  2.91 b     (2.59,3.06]
 3  3.06 c     (3.06,3.53]
 4  2.69 d     (2.59,3.06]
 5  2.88 e     (2.59,3.06]
 6  2.98 f     (2.59,3.06]
 7  1.61 a     [1.18,1.65]
 8  2.16 b     (2.12,2.59]
 9  1.56 c     [1.18,1.65]
10  1.76 d     (1.65,2.12]
# ℹ 218 more rows
…
