12_regexp_2.utf8
…
Pipes work here!

str_subset(words, "r") %>%
  str_subset("q")

[1] "quarter" "require" "square" 

Weaponizing str_detect with filter()

library(dplyr)

#extract anything without a male or female sex
filter(portal, str_detect(Sex, "[fmFM]"))

# A tibble: 52 x 5
   Species `Date Collected`    Plot  Sex   Weight
   <chr>   <dttm>              <chr> <chr> <chr> 
 1 DM      2013-07-16 00:00:00 2     F     <NA>  
 2 DM      2013-07-16 00:00:00 7     M     33g   
 3 DM      2013-07-16 00:00:00 3     M     <NA>  
 4 DM      2013-07-16 00:00:00 1     M     <NA>  
 5 DM      2013-07-18 00:00:00 3     M     40g   
 6 DM      2013-07-18 00:00:00 7     M     48g   
 7 DM      2013-07-18 00:00:00 4     F     29g   
 8 DM      2013-07-18 00:00:00 4     F     46g   
 9 DM      2013-07-18 00:00:00 7     M     36g   
10 DM      2013-07-18 00:00:00 7     F     35g   
# ... with 42 more rows
…
