17_gis_in_r.utf8
…
That Plankton Data…

# A tibble: 373 x 23
   Date                Site         Latitude Longitude Distance SampleName
   <dttm>              <chr>           <dbl>     <dbl>    <dbl> <chr>     
 1 2003-04-16 00:00:00 EST-SO-Bend…     42.7     -70.8     0    WS-1-331  
 2 2003-04-16 00:00:00 EST-SO-Bend…     42.7     -70.8     2.70 WS-2-332  
 3 2003-04-16 00:00:00 EST-SO-Bend…     42.7     -70.8     8.50 WS-3-333  
 4 2003-04-16 00:00:00 EST-PR-Bend…     42.8     -70.8    11.0  WS-4-334  
 5 2003-04-16 00:00:00 EST-PR-Bend…     42.8     -70.9    12.5  WS-5-335  
 6 2003-04-16 00:00:00 EST-PR-Bend…     42.8     -70.9    14.5  WS-6-336  
 7 2003-04-16 00:00:00 EST-PR-Bend…     42.8     -70.9    15.8  WS-7-337  
 8 2003-04-16 00:00:00 EST-PR-Bend…     42.8     -70.9    17.2  WS-8-338  
 9 2003-04-16 00:00:00 EST-PR-Bend…     42.8     -70.9    19.5  WS-9-339  
10 2003-04-16 00:00:00 EST-PR-Bend…     42.8     -70.9    21.0  WS-10-340 
# ... with 363 more rows, and 17 more variables: SubsampleName <chr>,
#   BottleName <chr>, SampleType <chr>, Volume <dbl>, Temp <dbl>,
#   Salinity <dbl>, TotalChlA <dbl>, DiatomsandChrysophytes <dbl>,
#   Cryptophytes <dbl>, Chlorophytes <dbl>, Dinoflagellates <dbl>,
#   Euglenophytes <dbl>, Prasinophytes <dbl>, Haptophytes <dbl>,
#   Prymnesiophytes <dbl>, Cyanobacteria <dbl>, Comments <chr>
…
The Innards of a SPDF

meuse

class       : SpatialPointsDataFrame 
features    : 155 
extent      : 178605, 181390, 329714, 333611  (xmin, xmax, ymin, ymax)
coord. ref. : NA 
variables   : 12
# A tibble: 155 x 12
   cadmium copper  lead  zinc  elev    dist    om ffreq soil  lime 
 *   <dbl>  <dbl> <dbl> <dbl> <dbl>   <dbl> <dbl> <fct> <fct> <fct>
 1   11.7    85.0 299    1022  7.91 0.00136 13.6  1     1     1    
 2    8.60   81.0 277    1141  6.98 0.0122  14.0  1     1     1    
 3    6.50   68.0 199     640  7.80 0.103   13.0  1     1     1    
 4    2.60   81.0 116     257  7.66 0.190    8.00 1     2     0    
 5    2.80   48.0 117     269  7.48 0.277    8.70 1     2     0    
 6    3.00   61.0 137     281  7.79 0.364    7.80 1     2     0    
 7    3.20   31.0 132     346  8.22 0.190    9.20 1     2     0    
 8    2.80   29.0 150     406  8.49 0.0922   9.50 1     1     0    
 9    2.40   37.0 133     347  8.67 0.185   10.6  1     1     0    
10    1.60   24.0  80.0   183  9.05 0.310    6.30 1     2     0    
# ... with 145 more rows, and 2 more variables: landuse <fct>,
#   dist.m <dbl>
…
