19_functions_practice.knit
…
# read in a file

Test Code Example

# define a year
a_year <- 2013

# make a filename (could use paste0 instead of str_c)
# or glue::glue()
buoy_file <- str_c("lectures/data/buoydata/44013_", a_year, ".csv")

# read in a file
read_csv(buoy_file)

# A tibble: 8,210 × 18
   X.YY  MM    DD    hh    mm    WDIR  WSPD  GST   WVHT  DPD   APD   MWD   PRES 
   <chr> <chr> <chr> <chr> <chr> <chr> <chr> <chr> <chr> <chr> <chr> <chr> <chr>
 1 #yr   mo    dy    hr    mn    degT  m/s   m/s   m     sec   sec   degT  hPa  
 2 2012  12    31    23    50    234   8.5   10.2  0.42  3.33  3.14  279   1011…
 3 2013  01    01    00    50    246   9.0   10.9  0.52  2.86  2.94  251   1010…
 4 2013  01    01    01    50    243   7.3   9.4   0.50  3.33  3.05  237   1010…
 5 2013  01    01    02    50    252   10.5  12.4  0.50  3.03  2.99  244   1009…
 6 2013  01    01    03    50    256   10.9  13.0  0.65  3.70  3.28  265   1008…
 7 2013  01    01    04    50    254   11.6  13.2  0.72  3.70  3.33  255   1007…
 8 2013  01    01    05    50    244   10.8  12.7  0.84  4.00  3.54  260   1006…
 9 2013  01    01    06    50    241   10.5  12.4  0.74  3.85  3.34  259   1006…
10 2013  01    01    07    50    237   9.7   11.9  0.67  3.70  3.17  257   1006…
# ℹ 8,200 more rows
# ℹ 5 more variables: ATMP <chr>, WTMP <chr>, DEWP <chr>, VIS <chr>, TIDE <chr>
…
