20_iteration.knit
…
Your turn again!

Make one big tibble using map_df(), a vector of
years, and get_buoy

Get the annual mean of wave height

Plot!

One Line to rule them all

all_buoys <- map_df(1986:2013, get_buoy)

# A tibble: 331 × 4
    Year Month Wave_Height Temperature_c
   <dbl> <dbl>       <dbl>         <dbl>
 1  1986     1     NaN              3.62
 2  1986     2     NaN              2.68
 3  1986     3     NaN              3.04
 4  1986     4     NaN              6.42
 5  1986     5     NaN             10.5 
 6  1986     6       0.470         13.7 
 7  1986     7       0.401         17.1 
 8  1986     8       0.517         18.1 
 9  1986     9       0.487         14.9 
10  1986    10       0.683         12.8 
# ℹ 321 more rows
…
