…
[1] 1.000000       NA 1.732051

loading data

library(readr)
#make a list of all files in a directory
files <- list.files("./data/mtls/")
#add file path info
files <- paste0("./data/mtls/", files)
#map it!
data <- map(files, read_table )
data[[1]]

# A tibble: 206 x 1
   `GROUP = L1_METADATA_FILE`                                 
   <chr>                                                      
 1 GROUP = METADATA_FILE_INFO                                 
 2 "ORIGIN = \"Image courtesy of the U.S. Geological Survey\""
 3 "REQUEST_ID = \"0601501153667_00009\""                     
 4 "LANDSAT_SCENE_ID = \"LC80400372013110LGN01\""             
 5 FILE_DATE = 2015-01-15T21:43:51Z                           
 6 "STATION_ID = \"LGN\""                                     
 7 "PROCESSING_SOFTWARE_VERSION = \"LPGS_2.4.0\""             
 8 END_GROUP = METADATA_FILE_INFO                             
 9 GROUP = PRODUCT_METADATA                                   
10 "DATA_TYPE = \"L1T\""                                      
# ... with 196 more rows
…
