Mapmaker, Mapmaker, Make me a Map!
…
Intro to Data Science for Biology

Intro

For this weeks homework, were going to focus on making maps with the TB incidence data from the World Health Organization and a little bit of Sea Surface Temperature.

First, the TB data, which is at the country level. Lets take a look

library(readr)

tb_world <- read_csv("../Labs/data/who_tb_data.csv")

tb_world

## # A tibble: 3,651 x 18
##    country iso2  iso3  g_whoregion  year estimated_popul est_incidences_
##    <chr>   <chr> <chr> <chr>       <int>            <int>            <dbl>
##  1 Afghan AF    AFG   EMR          2000         20093756              190
##  2 Afghan AF    AFG   EMR          2001         20966463              189
##  3 Afghan AF    AFG   EMR          2002         21979923              189
##  4 Afghan AF    AFG   EMR          2003         23064851              189
##  5 Afghan AF    AFG   EMR          2004         24118979              189
##  6 Afghan AF    AFG   EMR          2005         25070798              189
##  7 Afghan AF    AFG   EMR          2006         25893450              189
##  8 Afghan AF    AFG   EMR          2007         26616792              189
##  9 Afghan AF    AFG   EMR          2008         27294031              189
## 10 Afghan AF    AFG   EMR          2009         28004331              189
## # ... with 3,641 more rows, and 11 more variables:
## #   est_incidences_per_100K_people_lwr <dbl>,
## #   est_incidences_per_100K_people_upr <dbl>, est_incidences <int>,
## #   est_incidences_lwr <int>, est_incidences_upr <int>,
## #   est_mortality_per_100K_people <dbl>,
## #   est_mortality_per_100K_people_lwr <dbl>,
## #   est_mortality_per_100K_people_upr <dbl>, est_mortality <int>,
## #   est_mortality_lwr <int>, est_mortality_upr <int>
…
