Making Data Work for You
…
Reshape and plot!

The Columns

Lets begin by loading in the data, as well as loading up the tidyverse.

library(tidyverse)
library(readxl)

axoltl <- read_excel("./data/ALM assay statistics.xlsx")

axoltl

## # A tibble: 151 x 19
##    X__1   `Statistics on ca X__2   X__3  X__4  X__5   X__6   X__7   X__8 
##    <chr>  <chr>              <chr>  <chr> <chr> <chr>  <chr>  <chr>  <lgl>
##  1 <NA>   <NA>               <NA>   <NA>  <NA>  <NA>   <NA>   <NA>   NA   
##  2 EXPER Animal ID          Pheno <NA>  <NA>  <NA>   <NA>   <NA>   NA   
##  3 <NA>   <NA>               No ca Sing mult multi Compl NOTES  NA   
##  4 HepII 64 RFL             <NA>   <NA>  1     <NA>   <NA>   dista NA   
##  5 Compl 64 LFL             <NA>   <NA>  <NA>  1      <NA>   dista NA   
##  6 <NA>   80 RFL             1      <NA>  <NA>  <NA>   <NA>   <NA>   NA   
##  7 <NA>   80 LFL             <NA>   <NA>  1     <NA>   <NA>   dista NA   
##  8 <NA>   82 RFL             <NA>   <NA>  1     <NA>   <NA>   dista NA   
##  9 <NA>   82 LFL             <NA>   <NA>  1     <NA>   <NA>   dista NA   
## 10 <NA>   76 RFL             <NA>   <NA>  1     <NA>   <NA>   dista NA   
## # ... with 141 more rows, and 10 more variables: X__9 <dttm>, X__10 <chr>,
## #   X__11 <chr>, X__12 <chr>, X__13 <chr>, X__14 <chr>, X__15 <chr>,
## #   X__16 <chr>, X__17 <chr>, X__18 <chr>

Well thats no good. We notice instantly that the real column names are split between row 2 and 3. We can clean this up pretty easily by moving those names up and then getting rid of rows we dont need.

#move row 3 names to the top
names(axoltl) <- axoltl[3,]

#fix those last two
names(axoltl)[1:2] <- axoltl[2,1:2]

#get rid of rows we don't need
axoltl <- axoltl[-c(1:3),]

axoltl

## # A tibble: 148 x 19
##    EXPERIMENT `Animal ID` `No cartilage` `Single cartila `multiple symet
##    <chr>      <chr>       <chr>          <chr>            <chr>           
##  1 HepIII tr 64 RFL      <NA>           <NA>             1               
##  2 Completed 64 LFL      <NA>           <NA>             <NA>            
##  3 <NA>       80 RFL      1              <NA>             <NA>            
##  4 <NA>       80 LFL      <NA>           <NA>             1               
##  5 <NA>       82 RFL      <NA>           <NA>             1               
##  6 <NA>       82 LFL      <NA>           <NA>             1               
##  7 <NA>       76 RFL      <NA>           <NA>             1               
##  8 <NA>       76 LFL      <NA>           <NA>             1               
##  9 <NA>       81 RFL      <NA>           <NA>             1               
## 10 <NA>       81 LFL      1              <NA>             <NA>            
## # ... with 138 more rows, and 14 more variables: `multiple assymetrical
## #   with only 1 stylopod element(hypomorphic)` <chr>, `Complete limb (with
## #   2 stylopod elements)` <chr>, NOTES <chr>, `NA` <lgl>, `NA` <dttm>,
## #   `NA` <chr>, `NA` <chr>, `NA` <chr>, `NA` <chr>, `NA` <chr>,
## #   `NA` <chr>, `NA` <chr>, `NA` <chr>, `NA` <chr>
…
#We want column 8 onwards gone!
axoltl <- axoltl[,1:7]

axoltl

## # A tibble: 148 x 7
##    EXPERIMENT `Animal ID` `No cartilage` `Single cartila `multiple symet
##    <chr>      <chr>       <chr>          <chr>            <chr>           
##  1 HepIII tr 64 RFL      <NA>           <NA>             1               
##  2 Completed 64 LFL      <NA>           <NA>             <NA>            
##  3 <NA>       80 RFL      1              <NA>             <NA>            
##  4 <NA>       80 LFL      <NA>           <NA>             1               
##  5 <NA>       82 RFL      <NA>           <NA>             1               
##  6 <NA>       82 LFL      <NA>           <NA>             1               
##  7 <NA>       76 RFL      <NA>           <NA>             1               
##  8 <NA>       76 LFL      <NA>           <NA>             1               
##  9 <NA>       81 RFL      <NA>           <NA>             1               
## 10 <NA>       81 LFL      1              <NA>             <NA>            
## # ... with 138 more rows, and 2 more variables: `multiple assymetrical
## #   with only 1 stylopod element(hypomorphic)` <chr>, `Complete limb (with
## #   2 stylopod elements)` <chr>
…
OK, we have a lot of missing values - both in the Experiment column and through the rest of the data set. How do we fix all of that up? Lets start with experiment - we can use fill from tidyr and set it to down in order to make the column fixed.

axoltl <- axoltl %>%
  fill(Experiment, .direction = "down")

Now what about the rest? Well heres where gathering and spreading can be very useful.

Lets think about this data. Notice that every row only has 1 once. Thats because the 1 means - this was the outcome from that treatment on this particular animal. So, what we want, is each animal to have the condition of its response. This means going from this wide format to a long format.

axoltl_long <- axoltl %>%
  gather(Response, Value, -Experiment, -`Animal Id`)

axoltl_long

## # A tibble: 635 x 4
##    Experiment                `Animal Id` Response     Value
##    <chr>                     <chr>       <chr>        <chr>
##  1 HepIII treated periostium 64 RFL      No Cartilage <NA> 
##  2 HepIII treated periostium 64 LFL      No Cartilage <NA> 
##  3 HepIII treated periostium 80 RFL      No Cartilage 1    
##  4 HepIII treated periostium 80 LFL      No Cartilage <NA> 
##  5 HepIII treated periostium 82 RFL      No Cartilage <NA> 
##  6 HepIII treated periostium 82 LFL      No Cartilage <NA> 
##  7 HepIII treated periostium 76 RFL      No Cartilage <NA> 
##  8 HepIII treated periostium 76 LFL      No Cartilage <NA> 
##  9 HepIII treated periostium 81 RFL      No Cartilage <NA> 
## 10 HepIII treated periostium 81 LFL      No Cartilage 1    
## # ... with 625 more rows
…
