…
(p1 | p2 | p3) /
      p4

```

## vroom

Reading comma separated files and the like seems fast to you now - but that's only because we've been reading files with kilobytes of data in them at most. What about when you get to REAL big data - files with gigabytes or more of data in them? That's where [vroom](https://vroom.r-lib.org/) comes in. It can read over 1GB of data per second! But with great power, comes great responsibility in terms of how you structure loading files - and there are ways to load MANY files with vroom as well. So, try writing a cheat sheet on large file(s) handling with [vroom](https://vroom.r-lib.org/)!

```{r vroom, eval=FALSE, echo = TRUE}
vroom::vroom("mtcars.tsv",
  col_types = list(cyl = "i", gear = "f",hp = "i", disp = "_",
                   drat = "_", vs = "l", am = "l", carb = "i")
)
#> # A tibble: 32 x 10
#>   model           mpg   cyl    hp    wt  qsec vs    am    gear   carb
#>   <chr>         <dbl> <int> <int> <dbl> <dbl> <lgl> <lgl> <fct> <int>
#> 1 Mazda RX4      21       6   110  2.62  16.5 FALSE TRUE  4         4
#> 2 Mazda RX4 Wag  21       6   110  2.88  17.0 FALSE TRUE  4         4
#> 3 Datsun 710     22.8     4    93  2.32  18.6 TRUE  TRUE  4         1
#> # … with 29 more rows
```
…
